%YAML 1.1
%TAG !u! tag:unity3d.com,2011:
--- !u!114 &11400000
MonoBehaviour:
  m_ObjectHideFlags: 0
  m_CorrespondingSourceObject: {fileID: 0}
  m_PrefabInstance: {fileID: 0}
  m_PrefabAsset: {fileID: 0}
  m_GameObject: {fileID: 0}
  m_Enabled: 1
  m_EditorHideFlags: 0
  m_Script: {fileID: 11500000, guid: 95e66c6366d904e98bc83428217d4fd7, type: 3}
  m_Name: parallax
  m_EditorClassIdentifier: 
  _data:
    _json: '{"graph":{"variables":{"Kind":"Flow","collection":{"$content":[],"$version":"A"},"$version":"A"},"controlInputDefinitions":[],"controlOutputDefinitions":[],"valueInputDefinitions":[],"valueOutputDefinitions":[],"title":"Parallax","summary":null,"pan":{"x":550.5305,"y":100.6484},"zoom":0.7500001,"elements":[{"coroutine":false,"defaultValues":{},"position":{"x":-204.0,"y":-144.0},"guid":"bd7b0b61-91f4-49ca-9f81-67685954eeae","$version":"A","$type":"Unity.VisualScripting.Start"},{"coroutine":false,"defaultValues":{},"position":{"x":-210.0,"y":52.0},"guid":"7a5e3a61-9b6a-45b9-ac74-56ff8758ed29","$version":"A","$type":"Unity.VisualScripting.Update","$id":"11"},{"chainable":false,"member":{"name":"Translate","parameterTypes":["UnityEngine.Vector3","UnityEngine.Space"],"targetType":"UnityEngine.Transform","targetTypeName":"UnityEngine.Transform","$version":"A"},"defaultValues":{"target":null,"%translation":{"x":0.0,"y":0.0,"z":0.0,"$type":"UnityEngine.Vector3"},"%relativeTo":{"$content":"World","$type":"UnityEngine.Space"}},"position":{"x":265.0,"y":53.0},"guid":"7882f792-9f23-4725-a631-efe315cb4ab2","$version":"A","$type":"Unity.VisualScripting.InvokeMember","$id":"13"},{"specifyFallback":false,"kind":"Object","defaultValues":{"name":{"$content":"ParallaxSpeed","$type":"System.String"},"object":null},"position":{"x":-297.0,"y":180.0},"guid":"fabf1d9d-6d44-438e-a5a5-3caa0a3cc1c6","$version":"A","$type":"Unity.VisualScripting.GetVariable","$id":"16"},{"defaultValues":{"input":{"$content":0.0,"$type":"System.Single"}},"position":{"x":-92.0,"y":174.0},"guid":"a7290c99-91b1-4b8d-b91f-1b21c12ceef1","$version":"A","$type":"Unity.VisualScripting.ScalarPerSecond","$id":"18"},{"chainable":false,"member":{"name":".ctor","parameterTypes":["System.Single","System.Single","System.Single"],"targetType":"UnityEngine.Vector3","targetTypeName":"UnityEngine.Vector3","$version":"A"},"defaultValues":{"%x":{"$content":0.0,"$type":"System.Single"},"%y":{"$content":0.0,"$type":"System.Single"},"%z":{"$content":0.0,"$type":"System.Single"}},"position":{"x":82.0,"y":79.0},"guid":"74d2a64e-e18e-44be-9b8f-4c327790a6e7","$version":"A","$type":"Unity.VisualScripting.InvokeMember","$id":"20"},{"chainable":false,"member":{"name":"Destroy","parameterTypes":["UnityEngine.Object","System.Single"],"targetType":"UnityEngine.Component","targetTypeName":"UnityEngine.Component","$version":"A"},"defaultValues":{"%obj":null,"%t":{"$content":9.0,"$type":"System.Single"}},"position":{"x":587.0,"y":51.0},"guid":"9df53403-6694-487c-83db-ee7fd32b68be","$version":"A","$type":"Unity.VisualScripting.InvokeMember","$id":"23"},{"sourceUnit":{"$ref":"11"},"sourceKey":"trigger","destinationUnit":{"$ref":"20"},"destinationKey":"enter","guid":"8bdf6172-e749-40f1-96b3-8ce7be3d589a","$type":"Unity.VisualScripting.ControlConnection"},{"sourceUnit":{"$ref":"20"},"sourceKey":"exit","destinationUnit":{"$ref":"13"},"destinationKey":"enter","guid":"79eb429b-f7dc-414a-8762-bf92311f4189","$type":"Unity.VisualScripting.ControlConnection"},{"sourceUnit":{"$ref":"13"},"sourceKey":"exit","destinationUnit":{"$ref":"23"},"destinationKey":"enter","guid":"bf1a41d3-dd56-4ace-a75a-106672535eb9","$type":"Unity.VisualScripting.ControlConnection"},{"sourceUnit":{"$ref":"16"},"sourceKey":"value","destinationUnit":{"$ref":"18"},"destinationKey":"input","guid":"332e6a22-4dcc-423e-8c93-ecbde5629fb4","$type":"Unity.VisualScripting.ValueConnection"},{"sourceUnit":{"$ref":"20"},"sourceKey":"result","destinationUnit":{"$ref":"13"},"destinationKey":"%translation","guid":"500771c3-b95c-4c71-8636-29fa6c677914","$type":"Unity.VisualScripting.ValueConnection"},{"sourceUnit":{"$ref":"18"},"sourceKey":"output","destinationUnit":{"$ref":"20"},"destinationKey":"%x","guid":"919c17e8-126e-4383-ab9b-1a5ef41002af","$type":"Unity.VisualScripting.ValueConnection"}],"$version":"A"}}'
    _objectReferences: []
